Number,Driver Visible,Type,Driver Phone Use,Driver Seatbelt,Driver Age,Brake Lights,Passenger Loc,Lane,Passenger Seatbelt
1,1,1,1,1,3,1,1,2,1
2,2,2,0,0,0,2,0,1,1
3,1,3,2,1,2,1,1,1,1
4,1,4,2,1,1,1,0,2,1
5,1,5,1,1,2,2,0,2,1
6,2,3,0,0,0,2,1,2,2
7,1,2,1,2,2,2,0,3,2
